Booleans
…
---

class: split-40
count: false
.column[.content[

```r
*gapminder
```
]]
.column[.content[

```
# A tibble: 1,704 x 6
   country     continent  year lifeExp      pop gdpPercap
   <fct>       <fct>     <int>   <dbl>    <int>     <dbl>
 1 Afghanistan Asia       1952    28.8  8425333      779.
 2 Afghanistan Asia       1957    30.3  9240934      821.
 3 Afghanistan Asia       1962    32.0 10267083      853.
 4 Afghanistan Asia       1967    34.0 11537966      836.
 5 Afghanistan Asia       1972    36.1 13079460      740.
 6 Afghanistan Asia       1977    38.4 14880372      786.
 7 Afghanistan Asia       1982    39.9 12881816      978.
 8 Afghanistan Asia       1987    40.8 13867957      852.
 9 Afghanistan Asia       1992    41.7 16317921      649.
10 Afghanistan Asia       1997    41.8 22227415      635.
# … with 1,694 more rows
```
…
```r
gapminder %>%  
* filter(pop > 100000000 &
*        gdpPercap > 5000)
```
]]
.column[.content[

```
# A tibble: 30 x 6
   country continent  year lifeExp       pop gdpPercap
   <fct>   <fct>     <int>   <dbl>     <int>     <dbl>
 1 Brazil  Americas   1977    61.5 114313951     6660.
 2 Brazil  Americas   1982    63.3 128962939     7031.
 3 Brazil  Americas   1987    65.2 142938076     7807.
 4 Brazil  Americas   1992    67.1 155975974     6950.
 5 Brazil  Americas   1997    69.4 168546719     7958.
 6 Brazil  Americas   2002    71.0 179914212     8131.
 7 Brazil  Americas   2007    72.4 190010647     9066.
 8 Japan   Asia       1967    71.4 100825279     9848.
 9 Japan   Asia       1972    73.4 107188273    14779.
10 Japan   Asia       1977    75.4 113872473    16610.
# … with 20 more rows
```
…
