The Tidyverse in Action
…
<iframe width="560" height="315" src="https://www.youtube.com/embed/jbkSRLYSojo" frameborder="0" allow="accelerometer; autoplay; encrypted-media; gyroscope; picture-in-picture" allowfullscreen></iframe>

---

# The Data Frame

Now we can have a look at the *data frame* that is loaded after executing `library(gapminder)`. Each observation (row) in the data is a country-year observation, defined by the variables country and year.  Note that this data is actually a subset of the full data, containing values only for every five years and only 142 countries. 

```r
gapminder
```

```
  # A tibble: 1,704 x 6
     country     continent  year lifeExp      pop gdpPercap
     <fct>       <fct>     <int>   <dbl>    <int>     <dbl>
   1 Afghanistan Asia       1952    28.8  8425333      779.
   2 Afghanistan Asia       1957    30.3  9240934      821.
   3 Afghanistan Asia       1962    32.0 10267083      853.
   4 Afghanistan Asia       1967    34.0 11537966      836.
   5 Afghanistan Asia       1972    36.1 13079460      740.
   6 Afghanistan Asia       1977    38.4 14880372      786.
   7 Afghanistan Asia       1982    39.9 12881816      978.
   8 Afghanistan Asia       1987    40.8 13867957      852.
   9 Afghanistan Asia       1992    41.7 16317921      649.
  10 Afghanistan Asia       1997    41.8 22227415      635.
  # … with 1,694 more rows
```
…
---

class: split-40
count: false

.column[.content[

```r
*gapminder
```
]]
.column[.content[

```
  # A tibble: 1,704 x 6
     country     continent  year lifeExp      pop gdpPercap
     <fct>       <fct>     <int>   <dbl>    <int>     <dbl>
   1 Afghanistan Asia       1952    28.8  8425333      779.
   2 Afghanistan Asia       1957    30.3  9240934      821.
   3 Afghanistan Asia       1962    32.0 10267083      853.
   4 Afghanistan Asia       1967    34.0 11537966      836.
   5 Afghanistan Asia       1972    36.1 13079460      740.
   6 Afghanistan Asia       1977    38.4 14880372      786.
   7 Afghanistan Asia       1982    39.9 12881816      978.
   8 Afghanistan Asia       1987    40.8 13867957      852.
   9 Afghanistan Asia       1992    41.7 16317921      649.
  10 Afghanistan Asia       1997    41.8 22227415      635.
  # … with 1,694 more rows
```
…
.column[.content[

```r
gapminder %>%
* filter(year == 2007)
```
]]
.column[.content[

```
  # A tibble: 142 x 6
     country     continent  year lifeExp       pop gdpPercap
     <fct>       <fct>     <int>   <dbl>     <int>     <dbl>
   1 Afghanistan Asia       2007    43.8  31889923      975.
   2 Albania     Europe     2007    76.4   3600523     5937.
   3 Algeria     Africa     2007    72.3  33333216     6223.
   4 Angola      Africa     2007    42.7  12420476     4797.
   5 Argentina   Americas   2007    75.3  40301927    12779.
   6 Australia   Oceania    2007    81.2  20434176    34435.
   7 Austria     Europe     2007    79.8   8199783    36126.
   8 Bahrain     Asia       2007    75.6    708573    29796.
   9 Bangladesh  Asia       2007    64.1 150448339     1391.
  10 Belgium     Europe     2007    79.4  10392226    33693.
  # … with 132 more rows
```
…
---

class: split-40
count: false

.column[.content[

```r
*gapminder
```
]]
.column[.content[

```
  # A tibble: 1,704 x 6
     country     continent  year lifeExp      pop gdpPercap
     <fct>       <fct>     <int>   <dbl>    <int>     <dbl>
   1 Afghanistan Asia       1952    28.8  8425333      779.
   2 Afghanistan Asia       1957    30.3  9240934      821.
   3 Afghanistan Asia       1962    32.0 10267083      853.
   4 Afghanistan Asia       1967    34.0 11537966      836.
   5 Afghanistan Asia       1972    36.1 13079460      740.
   6 Afghanistan Asia       1977    38.4 14880372      786.
   7 Afghanistan Asia       1982    39.9 12881816      978.
   8 Afghanistan Asia       1987    40.8 13867957      852.
   9 Afghanistan Asia       1992    41.7 16317921      649.
  10 Afghanistan Asia       1997    41.8 22227415      635.
  # … with 1,694 more rows
```
…
.column[.content[

```r
gapminder %>%
* select(country, continent)
```
]]
.column[.content[

```
  # A tibble: 1,704 x 2
     country     continent
     <fct>       <fct>    
   1 Afghanistan Asia     
   2 Afghanistan Asia     
   3 Afghanistan Asia     
   4 Afghanistan Asia     
   5 Afghanistan Asia     
   6 Afghanistan Asia     
   7 Afghanistan Asia     
   8 Afghanistan Asia     
   9 Afghanistan Asia     
  10 Afghanistan Asia     
  # … with 1,694 more rows
```
…
.column[.content[

```r
gapminder %>%
  select(country, continent) %>%
* distinct()
```
]]
.column[.content[

```
  # A tibble: 142 x 2
     country     continent
     <fct>       <fct>    
   1 Afghanistan Asia     
   2 Albania     Europe   
   3 Algeria     Africa   
   4 Angola      Africa   
   5 Argentina   Americas 
   6 Australia   Oceania  
   7 Austria     Europe   
   8 Bahrain     Asia     
   9 Bangladesh  Asia     
  10 Belgium     Europe   
  # … with 132 more rows
```
…
---

class: split-40
count: false

.column[.content[

```r
*gapminder
```
]]
.column[.content[

```
  # A tibble: 1,704 x 6
     country     continent  year lifeExp      pop gdpPercap
     <fct>       <fct>     <int>   <dbl>    <int>     <dbl>
   1 Afghanistan Asia       1952    28.8  8425333      779.
   2 Afghanistan Asia       1957    30.3  9240934      821.
   3 Afghanistan Asia       1962    32.0 10267083      853.
   4 Afghanistan Asia       1967    34.0 11537966      836.
   5 Afghanistan Asia       1972    36.1 13079460      740.
   6 Afghanistan Asia       1977    38.4 14880372      786.
   7 Afghanistan Asia       1982    39.9 12881816      978.
   8 Afghanistan Asia       1987    40.8 13867957      852.
   9 Afghanistan Asia       1992    41.7 16317921      649.
  10 Afghanistan Asia       1997    41.8 22227415      635.
  # … with 1,694 more rows
```
…
.column[.content[

```r
gapminder %>%
* filter(year == 2007)
```
]]
.column[.content[

```
  # A tibble: 142 x 6
     country     continent  year lifeExp       pop gdpPercap
     <fct>       <fct>     <int>   <dbl>     <int>     <dbl>
   1 Afghanistan Asia       2007    43.8  31889923      975.
   2 Albania     Europe     2007    76.4   3600523     5937.
   3 Algeria     Africa     2007    72.3  33333216     6223.
   4 Angola      Africa     2007    42.7  12420476     4797.
   5 Argentina   Americas   2007    75.3  40301927    12779.
   6 Australia   Oceania    2007    81.2  20434176    34435.
   7 Austria     Europe     2007    79.8   8199783    36126.
   8 Bahrain     Asia       2007    75.6    708573    29796.
   9 Bangladesh  Asia       2007    64.1 150448339     1391.
  10 Belgium     Europe     2007    79.4  10392226    33693.
  # … with 132 more rows
```
…
.column[.content[

```r
gapminder %>%
  filter(year == 2007) %>%
* mutate(gdp_approx = gdpPercap * pop)
```
]]
.column[.content[

```
  # A tibble: 142 x 7
     country     continent  year lifeExp       pop gdpPercap    gdp_approx
     <fct>       <fct>     <int>   <dbl>     <int>     <dbl>         <dbl>
   1 Afghanistan Asia       2007    43.8  31889923      975.  31079291949.
   2 Albania     Europe     2007    76.4   3600523     5937.  21376411360.
   3 Algeria     Africa     2007    72.3  33333216     6223. 207444851958.
   4 Angola      Africa     2007    42.7  12420476     4797.  59583895818.
   5 Argentina   Americas   2007    75.3  40301927    12779. 515033625357.
   6 Australia   Oceania    2007    81.2  20434176    34435. 703658358894.
   7 Austria     Europe     2007    79.8   8199783    36126. 296229400691.
   8 Bahrain     Asia       2007    75.6    708573    29796.  21112675360.
   9 Bangladesh  Asia       2007    64.1 150448339     1391. 209311822134.
  10 Belgium     Europe     2007    79.4  10392226    33693. 350141166520.
  # … with 132 more rows
```
…
---

class: split-40
count: false

.column[.content[

```r
*gapminder
```
]]
.column[.content[

```
  # A tibble: 1,704 x 6
     country     continent  year lifeExp      pop gdpPercap
     <fct>       <fct>     <int>   <dbl>    <int>     <dbl>
   1 Afghanistan Asia       1952    28.8  8425333      779.
   2 Afghanistan Asia       1957    30.3  9240934      821.
   3 Afghanistan Asia       1962    32.0 10267083      853.
   4 Afghanistan Asia       1967    34.0 11537966      836.
   5 Afghanistan Asia       1972    36.1 13079460      740.
   6 Afghanistan Asia       1977    38.4 14880372      786.
   7 Afghanistan Asia       1982    39.9 12881816      978.
   8 Afghanistan Asia       1987    40.8 13867957      852.
   9 Afghanistan Asia       1992    41.7 16317921      649.
  10 Afghanistan Asia       1997    41.8 22227415      635.
  # … with 1,694 more rows
```
…
.column[.content[

```r
gapminder %>%
* select(-pop, -gdpPercap)
```
]]
.column[.content[

```
  # A tibble: 1,704 x 4
     country     continent  year lifeExp
     <fct>       <fct>     <int>   <dbl>
   1 Afghanistan Asia       1952    28.8
   2 Afghanistan Asia       1957    30.3
   3 Afghanistan Asia       1962    32.0
   4 Afghanistan Asia       1967    34.0
   5 Afghanistan Asia       1972    36.1
   6 Afghanistan Asia       1977    38.4
   7 Afghanistan Asia       1982    39.9
   8 Afghanistan Asia       1987    40.8
   9 Afghanistan Asia       1992    41.7
  10 Afghanistan Asia       1997    41.8
  # … with 1,694 more rows
```
…
.column[.content[

```r
gapminder %>%
  select(-pop, -gdpPercap) %>%
* filter(year == 2007)
```
]]
.column[.content[

```
  # A tibble: 142 x 4
     country     continent  year lifeExp
     <fct>       <fct>     <int>   <dbl>
   1 Afghanistan Asia       2007    43.8
   2 Albania     Europe     2007    76.4
   3 Algeria     Africa     2007    72.3
   4 Angola      Africa     2007    42.7
   5 Argentina   Americas   2007    75.3
   6 Australia   Oceania    2007    81.2
   7 Austria     Europe     2007    79.8
   8 Bahrain     Asia       2007    75.6
   9 Bangladesh  Asia       2007    64.1
  10 Belgium     Europe     2007    79.4
  # … with 132 more rows
```
…
.column[.content[

```r
gapminder %>%
  select(-pop, -gdpPercap) %>%
  filter(year == 2007) %>%
* group_by(continent)
```
]]
.column[.content[

```
  # A tibble: 142 x 4
  # Groups:   continent [5]
     country     continent  year lifeExp
     <fct>       <fct>     <int>   <dbl>
   1 Afghanistan Asia       2007    43.8
   2 Albania     Europe     2007    76.4
   3 Algeria     Africa     2007    72.3
   4 Angola      Africa     2007    42.7
   5 Argentina   Americas   2007    75.3
   6 Australia   Oceania    2007    81.2
   7 Austria     Europe     2007    79.8
   8 Bahrain     Asia       2007    75.6
   9 Bangladesh  Asia       2007    64.1
  10 Belgium     Europe     2007    79.4
  # … with 132 more rows
```
…
---

class: split-40
count: false

.column[.content[

```r
*gapminder
```
]]
.column[.content[

```
  # A tibble: 1,704 x 6
     country     continent  year lifeExp      pop gdpPercap
     <fct>       <fct>     <int>   <dbl>    <int>     <dbl>
   1 Afghanistan Asia       1952    28.8  8425333      779.
   2 Afghanistan Asia       1957    30.3  9240934      821.
   3 Afghanistan Asia       1962    32.0 10267083      853.
   4 Afghanistan Asia       1967    34.0 11537966      836.
   5 Afghanistan Asia       1972    36.1 13079460      740.
   6 Afghanistan Asia       1977    38.4 14880372      786.
   7 Afghanistan Asia       1982    39.9 12881816      978.
   8 Afghanistan Asia       1987    40.8 13867957      852.
   9 Afghanistan Asia       1992    41.7 16317921      649.
  10 Afghanistan Asia       1997    41.8 22227415      635.
  # … with 1,694 more rows
```
…
.column[.content[

```r
gapminder %>%
* filter(year == 1997)
```
]]
.column[.content[

```
  # A tibble: 142 x 6
     country     continent  year lifeExp       pop gdpPercap
     <fct>       <fct>     <int>   <dbl>     <int>     <dbl>
   1 Afghanistan Asia       1997    41.8  22227415      635.
   2 Albania     Europe     1997    73.0   3428038     3193.
   3 Algeria     Africa     1997    69.2  29072015     4797.
   4 Angola      Africa     1997    41.0   9875024     2277.
   5 Argentina   Americas   1997    73.3  36203463    10967.
   6 Australia   Oceania    1997    78.8  18565243    26998.
   7 Austria     Europe     1997    77.5   8069876    29096.
   8 Bahrain     Asia       1997    73.9    598561    20292.
   9 Bangladesh  Asia       1997    59.4 123315288      973.
  10 Belgium     Europe     1997    77.5  10199787    27561.
  # … with 132 more rows
```
…
.column[.content[

```r
gapminder %>%
  filter(year == 1997) %>%
* select(country, continent, lifeExp)
```
]]
.column[.content[

```
  # A tibble: 142 x 3
     country     continent lifeExp
     <fct>       <fct>       <dbl>
   1 Afghanistan Asia         41.8
   2 Albania     Europe       73.0
   3 Algeria     Africa       69.2
   4 Angola      Africa       41.0
   5 Argentina   Americas     73.3
   6 Australia   Oceania      78.8
   7 Austria     Europe       77.5
   8 Bahrain     Asia         73.9
   9 Bangladesh  Asia         59.4
  10 Belgium     Europe       77.5
  # … with 132 more rows
```
…
.column[.content[

```r
gapminder %>%
  filter(year == 1997) %>%
  select(country, continent, lifeExp) %>%
* mutate(life_cats =
*          case_when(lifeExp >= 70 ~ "70+", lifeExp < 70 ~ "<70"))
```
]]
.column[.content[

```
  # A tibble: 142 x 4
     country     continent lifeExp life_cats
     <fct>       <fct>       <dbl> <chr>    
   1 Afghanistan Asia         41.8 <70      
   2 Albania     Europe       73.0 70+      
   3 Algeria     Africa       69.2 <70      
   4 Angola      Africa       41.0 <70      
   5 Argentina   Americas     73.3 70+      
   6 Australia   Oceania      78.8 70+      
   7 Austria     Europe       77.5 70+      
   8 Bahrain     Asia         73.9 70+      
   9 Bangladesh  Asia         59.4 <70      
  10 Belgium     Europe       77.5 70+      
  # … with 132 more rows
```
…
---

class: split-40
count: false

.column[.content[

```r
*gapminder
```
]]
.column[.content[

```
  # A tibble: 1,704 x 6
     country     continent  year lifeExp      pop gdpPercap
     <fct>       <fct>     <int>   <dbl>    <int>     <dbl>
   1 Afghanistan Asia       1952    28.8  8425333      779.
   2 Afghanistan Asia       1957    30.3  9240934      821.
   3 Afghanistan Asia       1962    32.0 10267083      853.
   4 Afghanistan Asia       1967    34.0 11537966      836.
   5 Afghanistan Asia       1972    36.1 13079460      740.
   6 Afghanistan Asia       1977    38.4 14880372      786.
   7 Afghanistan Asia       1982    39.9 12881816      978.
   8 Afghanistan Asia       1987    40.8 13867957      852.
   9 Afghanistan Asia       1992    41.7 16317921      649.
  10 Afghanistan Asia       1997    41.8 22227415      635.
  # … with 1,694 more rows
```
…
.column[.content[

```r
gapminder %>%
* select(country, continent,
*        lifeExp, year)
```
]]
.column[.content[

```
  # A tibble: 1,704 x 4
     country     continent lifeExp  year
     <fct>       <fct>       <dbl> <int>
   1 Afghanistan Asia         28.8  1952
   2 Afghanistan Asia         30.3  1957
   3 Afghanistan Asia         32.0  1962
   4 Afghanistan Asia         34.0  1967
   5 Afghanistan Asia         36.1  1972
   6 Afghanistan Asia         38.4  1977
   7 Afghanistan Asia         39.9  1982
   8 Afghanistan Asia         40.8  1987
   9 Afghanistan Asia         41.7  1992
  10 Afghanistan Asia         41.8  1997
  # … with 1,694 more rows
```
…
.column[.content[

```r
gapminder %>%
  select(country, continent,
         lifeExp, year) %>%
* spread(key = year, value = lifeExp)
```
]]
.column[.content[

```
  # A tibble: 142 x 14
     country continent `1952` `1957` `1962` `1967` `1972` `1977` `1982`
     <fct>   <fct>      <dbl>  <dbl>  <dbl>  <dbl>  <dbl>  <dbl>  <dbl>
   1 Afghan… Asia        28.8   30.3   32.0   34.0   36.1   38.4   39.9
   2 Albania Europe      55.2   59.3   64.8   66.2   67.7   68.9   70.4
   3 Algeria Africa      43.1   45.7   48.3   51.4   54.5   58.0   61.4
   4 Angola  Africa      30.0   32.0   34     36.0   37.9   39.5   39.9
   5 Argent… Americas    62.5   64.4   65.1   65.6   67.1   68.5   69.9
   6 Austra… Oceania     69.1   70.3   70.9   71.1   71.9   73.5   74.7
   7 Austria Europe      66.8   67.5   69.5   70.1   70.6   72.2   73.2
   8 Bahrain Asia        50.9   53.8   56.9   59.9   63.3   65.6   69.1
   9 Bangla… Asia        37.5   39.3   41.2   43.5   45.3   46.9   50.0
  10 Belgium Europe      68     69.2   70.2   70.9   71.4   72.8   73.9
  # … with 132 more rows, and 5 more variables: `1987` <dbl>, `1992` <dbl>,
  #   `1997` <dbl>, `2002` <dbl>, `2007` <dbl>
```
…
---

class: split-40
count: false

.column[.content[

```r
*gapminder_life_exp_wide
```
]]
.column[.content[

```
  # A tibble: 142 x 14
     country continent `1952` `1957` `1962` `1967` `1972` `1977` `1982`
     <fct>   <fct>      <dbl>  <dbl>  <dbl>  <dbl>  <dbl>  <dbl>  <dbl>
   1 Afghan… Asia        28.8   30.3   32.0   34.0   36.1   38.4   39.9
   2 Albania Europe      55.2   59.3   64.8   66.2   67.7   68.9   70.4
   3 Algeria Africa      43.1   45.7   48.3   51.4   54.5   58.0   61.4
   4 Angola  Africa      30.0   32.0   34     36.0   37.9   39.5   39.9
   5 Argent… Americas    62.5   64.4   65.1   65.6   67.1   68.5   69.9
   6 Austra… Oceania     69.1   70.3   70.9   71.1   71.9   73.5   74.7
   7 Austria Europe      66.8   67.5   69.5   70.1   70.6   72.2   73.2
   8 Bahrain Asia        50.9   53.8   56.9   59.9   63.3   65.6   69.1
   9 Bangla… Asia        37.5   39.3   41.2   43.5   45.3   46.9   50.0
  10 Belgium Europe      68     69.2   70.2   70.9   71.4   72.8   73.9
  # … with 132 more rows, and 5 more variables: `1987` <dbl>, `1992` <dbl>,
  #   `1997` <dbl>, `2002` <dbl>, `2007` <dbl>
```
…
.column[.content[

```r
gapminder_life_exp_wide %>%
* gather(key = "year", value = "lifeExp",
*        -country, -continent)
```
]]
.column[.content[

```
  # A tibble: 1,704 x 4
     country     continent year  lifeExp
     <fct>       <fct>     <chr>   <dbl>
   1 Afghanistan Asia      1952     28.8
   2 Albania     Europe    1952     55.2
   3 Algeria     Africa    1952     43.1
   4 Angola      Africa    1952     30.0
   5 Argentina   Americas  1952     62.5
   6 Australia   Oceania   1952     69.1
   7 Austria     Europe    1952     66.8
   8 Bahrain     Asia      1952     50.9
   9 Bangladesh  Asia      1952     37.5
  10 Belgium     Europe    1952     68  
  # … with 1,694 more rows
```
…
.column[.content[

```r
gapminder_life_exp_wide %>%
  gather(key = "year", value = "lifeExp",
         -country, -continent) %>%
* mutate(year = as.numeric(year))
```
]]
.column[.content[

```
  # A tibble: 1,704 x 4
     country     continent  year lifeExp
     <fct>       <fct>     <dbl>   <dbl>
   1 Afghanistan Asia       1952    28.8
   2 Albania     Europe     1952    55.2
   3 Algeria     Africa     1952    43.1
   4 Angola      Africa     1952    30.0
   5 Argentina   Americas   1952    62.5
   6 Australia   Oceania    1952    69.1
   7 Austria     Europe     1952    66.8
   8 Bahrain     Asia       1952    50.9
   9 Bangladesh  Asia       1952    37.5
  10 Belgium     Europe     1952    68  
  # … with 1,694 more rows
```
…
